{
    "data": {
        "stations": [
            {
                "name": "Station A",
                "equipment": [
                    {
                        "name": "Table",
                        "bookedQuantity": 5,
                        "availableQuantity": 0
                    },
                    {
                        "name": "Chair",
                        "bookedQuantity": 10,
                        "availableQuantity": 0
                    }
                ],
                "campervans": [
                    {
                        "name": "Surfer Suite",
                        "bookedQuantity": 1,
                        "availableQuantity": 4
                    },
                    {
                        "name": "Travel Home",
                        "bookedQuantity": 0,
                        "availableQuantity": 10
                    }
                ]
            },
            {
                "name": "Station B",
                "equipment": [
                    {
                        "name": "Table",
                        "bookedQuantity": 0,
                        "availableQuantity": 5
                    },
                    {
                        "name": "Chair",
                        "bookedQuantity": 0,
                        "availableQuantity": 10
                    }
                ],
                "campervans": [
                    {
                        "name": "Surfer Suite",
                        "bookedQuantity": 0,
                        "availableQuantity": 5
                    },
                    {
                        "name": "Travel Home",
                        "bookedQuantity": 0,
                        "availableQuantity": 10
                    }
                ]
            }
        ]
    }
}